 KPT            1  SPIN            1  KWEIGHT    1.0000000000000000     
     1   -25.013  2.00000
     2   -25.013  2.00000
     3   -24.949  2.00000
     4   -24.949  2.00000
     5   -24.949  2.00000
     6   -24.949  2.00000
     7   -24.780  2.00000
     8   -24.780  2.00000
     9   -24.780  2.00000
    10   -24.780  2.00000
    11   -24.780  2.00000
    12   -24.780  2.00000
    13   -24.722  2.00000
    14   -24.722  2.00000
    15   -24.722  2.00000
    16   -24.722  2.00000
    17   -24.722  2.00000
    18   -24.722  2.00000
    19   -24.713  2.00000
    20   -24.713  2.00000
    21   -24.713  2.00000
    22   -24.713  2.00000
    23   -24.713  2.00000
    24   -24.713  2.00000
    25   -24.702  2.00000
    26   -24.702  2.00000
    27   -24.668  2.00000
    28   -24.668  2.00000
    29   -24.668  2.00000
    30   -24.668  2.00000
    31   -24.661  2.00000
    32   -24.661  2.00000
    33   -24.661  2.00000
    34   -24.661  2.00000
    35   -24.661  2.00000
    36   -24.661  2.00000
    37   -24.653  2.00000
    38   -24.653  2.00000
    39   -24.653  2.00000
    40   -24.653  2.00000
    41   -24.653  2.00000
    42   -24.653  2.00000
    43   -24.413  2.00000
    44   -24.413  2.00000
    45   -24.413  2.00000
    46   -24.413  2.00000
    47   -24.413  2.00000
    48   -24.413  2.00000
    49   -23.459  2.00000
    50   -23.459  2.00000
    51   -23.459  2.00000
    52   -23.459  2.00000
    53   -23.418  2.00000
    54   -23.418  2.00000
    55   -23.317  2.00000
    56   -23.317  2.00000
    57   -23.317  2.00000
    58   -23.317  2.00000
    59   -23.317  2.00000
    60   -23.317  2.00000
    61   -23.202  2.00000
    62   -23.202  2.00000
    63   -23.202  2.00000
    64   -23.202  2.00000
    65   -23.202  2.00000
    66   -23.202  2.00000
    67   -23.196  2.00000
    68   -23.196  2.00000
    69   -23.196  2.00000
    70   -23.196  2.00000
    71   -23.196  2.00000
    72   -23.196  2.00000
    73   -22.972  2.00000
    74   -22.972  2.00000
    75   -22.972  2.00000
    76   -22.972  2.00000
    77   -22.972  2.00000
    78   -22.972  2.00000
    79   -22.922  2.00000
    80   -22.922  2.00000
    81   -22.797  2.00000
    82   -22.797  2.00000
    83   -22.791  2.00000
    84   -22.791  2.00000
    85   -22.791  2.00000
    86   -22.791  2.00000
    87   -22.513  2.00000
    88   -22.513  2.00000
    89   -22.513  2.00000
    90   -22.513  2.00000
    91   -22.513  2.00000
    92   -22.513  2.00000
    93   -22.507  2.00000
    94   -22.507  2.00000
    95   -22.507  2.00000
    96   -22.507  2.00000
    97   -22.507  2.00000
    98   -22.507  2.00000
    99   -22.257  2.00000
   100   -22.257  2.00000
   101   -22.257  2.00000
   102   -22.257  2.00000
   103   -22.257  2.00000
   104   -22.257  2.00000
   105   -20.206  2.00000
   106   -20.206  2.00000
   107   -20.206  2.00000
   108   -20.206  2.00000
   109   -20.206  2.00000
   110   -20.206  2.00000
   111   -20.194  2.00000
   112   -20.194  2.00000
   113   -20.194  2.00000
   114   -20.194  2.00000
   115   -20.194  2.00000
   116   -20.194  2.00000
   117   -20.014  2.00000
   118   -20.014  2.00000
   119   -20.014  2.00000
   120   -20.014  2.00000
   121   -20.014  2.00000
   122   -20.014  2.00000
   123   -20.007  2.00000
   124   -20.007  2.00000
   125   -20.007  2.00000
   126   -20.006  2.00000
   127   -20.006  2.00000
   128   -20.006  2.00000
   129   -19.956  2.00000
   130   -19.956  2.00000
   131   -19.827  2.00000
   132   -19.827  2.00000
   133   -19.802  2.00000
   134   -19.801  2.00000
   135   -19.801  2.00000
   136   -19.801  2.00000
   137   -19.801  2.00000
   138   -19.801  2.00000
   139   -19.791  2.00000
   140   -19.791  2.00000
   141   -19.790  2.00000
   142   -19.790  2.00000
   143   -19.790  2.00000
   144   -19.790  2.00000
   145   -19.542  2.00000
   146   -19.542  2.00000
   147   -19.542  2.00000
   148   -19.542  2.00000
   149   -19.535  2.00000
   150   -19.535  2.00000
   151   -19.535  2.00000
   152   -19.535  2.00000
   153   -19.419  2.00000
   154   -19.418  2.00000
   155   -19.418  2.00000
   156   -19.418  2.00000
   157   -19.418  2.00000
   158   -19.418  2.00000
   159   -19.407  2.00000
   160   -19.407  2.00000
   161   -19.407  2.00000
   162   -19.407  2.00000
   163   -19.407  2.00000
   164   -19.407  2.00000
   165   -19.212  2.00000
   166   -19.212  2.00000
   167   -19.087  2.00000
   168   -19.087  2.00000
   169   -18.467  2.00000
   170   -18.466  2.00000
   171   -18.466  2.00000
   172   -18.466  2.00000
   173   -18.465  2.00000
   174   -18.465  2.00000
   175   -18.455  2.00000
   176   -18.455  2.00000
   177   -18.455  2.00000
   178   -18.454  2.00000
   179   -18.454  2.00000
   180   -18.454  2.00000
   181   -18.266  2.00000
   182   -18.265  2.00000
   183   -18.264  2.00000
   184   -18.264  2.00000
   185   -18.264  2.00000
   186   -18.264  2.00000
   187   -18.253  2.00000
   188   -18.252  2.00000
   189   -18.252  2.00000
   190   -18.252  2.00000
   191   -18.252  2.00000
   192   -18.252  2.00000
   193   -18.139  2.00000
   194   -18.139  2.00000
   195   -18.139  2.00000
   196   -18.139  2.00000
   197   -17.859  2.00000
   198   -17.859  2.00000
   199   -17.859  2.00000
   200   -17.859  2.00000
   201   -17.592  2.00000
   202   -17.590  2.00000
   203   -17.590  2.00000
   204   -17.590  2.00000
   205   -17.588  2.00000
   206   -17.588  2.00000
   207   -17.577  2.00000
   208   -17.576  2.00000
   209   -17.576  2.00000
   210   -17.575  2.00000
   211   -17.574  2.00000
   212   -17.574  2.00000
   213   -17.360  2.00000
   214   -17.360  2.00000
   215   -17.103  2.00000
   216   -17.103  2.00000
   217   -17.103  2.00000
   218   -17.103  2.00000
   219   -17.100  2.00000
   220   -17.100  2.00000
   221   -17.087  2.00000
   222   -17.087  2.00000
   223   -17.087  2.00000
   224   -17.087  2.00000
   225   -17.087  2.00000
   226   -17.087  2.00000
   227   -17.086  2.00000
   228   -17.086  2.00000
   229   -17.085  2.00000
   230   -17.085  2.00000
   231   -17.082  2.00000
   232   -17.082  2.00000
   233   -17.080  2.00000
   234   -17.080  2.00000
   235   -17.080  2.00000
   236   -17.080  2.00000
   237   -17.080  2.00000
   238   -17.080  2.00000
   239   -17.071  2.00000
   240   -17.071  2.00000
   241   -17.041  2.00000
   242   -17.041  2.00000
   243   -17.041  2.00000
   244   -17.041  2.00000
   245   -17.041  2.00000
   246   -17.041  2.00000
   247   -17.030  2.00000
   248   -17.030  2.00000
   249   -17.029  2.00000
   250   -17.029  2.00000
   251   -17.029  2.00000
   252   -17.029  2.00000
   253   -16.959  2.00000
   254   -16.959  2.00000
   255   -16.959  2.00000
   256   -16.959  2.00000
   257   -16.959  2.00000
   258   -16.959  2.00000
   259   -16.948  2.00000
   260   -16.948  2.00000
   261   -16.948  2.00000
   262   -16.948  2.00000
   263   -16.948  2.00000
   264   -16.948  2.00000
   265   -16.752  2.00000
   266   -16.751  2.00000
   267   -16.751  2.00000
   268   -16.750  2.00000
   269   -16.749  2.00000
   270   -16.749  2.00000
   271   -16.735  2.00000
   272   -16.734  2.00000
   273   -16.734  2.00000
   274   -16.734  2.00000
   275   -16.733  2.00000
   276   -16.733  2.00000
   277   -16.714  2.00000
   278   -16.714  2.00000
   279   -16.714  2.00000
   280   -16.714  2.00000
   281   -16.653  2.00000
   282   -16.653  2.00000
   283   -16.651  2.00000
   284   -16.651  2.00000
   285   -16.651  2.00000
   286   -16.651  2.00000
   287   -16.635  2.00000
   288   -16.634  2.00000
   289   -16.634  2.00000
   290   -16.634  2.00000
   291   -16.633  2.00000
   292   -16.633  2.00000
   293   -16.474  2.00000
   294   -16.474  2.00000
   295   -16.474  2.00000
   296   -16.474  2.00000
   297   -14.849  2.00000
   298   -14.848  2.00000
   299   -14.821  2.00000
   300   -14.820  2.00000
   301   -14.818  2.00000
   302   -14.818  2.00000
   303   -14.783  2.00000
   304   -14.783  2.00000
   305   -14.778  2.00000
   306   -14.777  2.00000
   307   -14.777  2.00000
   308   -14.772  2.00000
   309   -14.771  2.00000
   310   -14.766  2.00000
   311   -14.766  2.00000
   312   -14.765  2.00000
   313   -14.763  2.00000
   314   -14.763  2.00000
   315   -14.754  2.00000
   316   -14.754  2.00000
   317   -14.754  2.00000
   318   -14.754  2.00000
   319   -14.705  2.00000
   320   -14.698  2.00000
   321   -14.686  2.00000
   322   -14.686  2.00000
   323   -14.681  2.00000
   324   -14.681  2.00000
   325   -14.649  2.00000
   326   -14.644  2.00000
   327   -14.586  2.00000
   328   -14.585  2.00000
   329   -14.585  2.00000
   330   -14.574  2.00000
   331   -14.571  2.00000
   332   -14.571  2.00000
   333   -14.533  2.00000
   334   -14.524  2.00000
   335   -14.524  2.00000
   336   -14.522  2.00000
   337   -14.509  2.00000
   338   -14.509  2.00000
   339   -14.498  2.00000
   340   -14.498  2.00000
   341   -14.497  2.00000
   342   -14.497  2.00000
   343   -14.303  2.00000
   344   -14.302  2.00000
   345   -14.072  2.00000
   346   -14.069  2.00000
   347   -14.069  2.00000
   348   -14.068  2.00000
   349   -14.063  2.00000
   350   -14.063  2.00000
   351   -14.041  2.00000
   352   -14.036  2.00000
   353   -14.032  2.00000
   354   -14.032  2.00000
   355   -14.031  2.00000
   356   -14.031  2.00000
   357   -13.951  2.00000
   358   -13.945  2.00000
   359   -13.945  2.00000
   360   -13.944  2.00000
   361   -13.940  2.00000
   362   -13.940  2.00000
   363   -13.919  2.00000
   364   -13.918  2.00000
   365   -13.917  2.00000
   366   -13.914  2.00000
   367   -13.910  2.00000
   368   -13.910  2.00000
   369   -13.874  2.00000
   370   -13.874  2.00000
   371   -13.873  2.00000
   372   -13.873  2.00000
   373   -13.865  2.00000
   374   -13.865  2.00000
   375   -13.864  2.00000
   376   -13.864  2.00000
   377   -13.863  2.00000
   378   -13.859  2.00000
   379   -13.859  2.00000
   380   -13.859  2.00000
   381   -13.841  2.00000
   382   -13.833  2.00000
   383   -13.830  2.00000
   384   -13.830  2.00000
   385   -13.820  2.00000
   386   -13.820  2.00000
   387   -13.620  2.00000
   388   -13.620  2.00000
   389   -13.617  2.00000
   390   -13.617  2.00000
   391   -13.559  2.00000
   392   -13.558  2.00000
   393   -13.549  2.00000
   394   -13.549  2.00000
   395   -13.548  2.00000
   396   -13.548  2.00000
   397   -13.547  2.00000
   398   -13.546  2.00000
   399   -13.501  2.00000
   400   -13.501  2.00000
   401   -13.499  2.00000
   402   -13.499  2.00000
   403   -13.492  2.00000
   404   -13.487  2.00000
   405   -13.448  2.00000
   406   -13.448  2.00000
   407   -13.441  2.00000
   408   -13.441  2.00000
   409   -13.418  2.00000
   410   -13.411  2.00000
   411   -13.411  2.00000
   412   -13.394  2.00000
   413   -13.386  2.00000
   414   -13.386  2.00000
   415   -13.381  2.00000
   416   -13.380  2.00000
   417   -13.380  2.00000
   418   -13.362  2.00000
   419   -13.358  2.00000
   420   -13.358  2.00000
   421   -13.123  2.00000
   422   -13.123  2.00000
   423   -13.120  2.00000
   424   -13.120  2.00000
   425   -13.056  2.00000
   426   -13.027  2.00000
   427   -13.027  2.00000
   428   -13.008  2.00000
   429   -13.007  2.00000
   430   -13.007  2.00000
   431   -13.007  2.00000
   432   -12.989  2.00000
   433   -12.970  2.00000
   434   -12.970  2.00000
   435   -12.947  2.00000
   436   -12.947  2.00000
   437   -12.935  2.00000
   438   -12.930  2.00000
   439   -12.792  2.00000
   440   -12.790  2.00000
   441   -12.634  2.00000
   442   -12.634  2.00000
   443   -12.627  2.00000
   444   -12.624  2.00000
   445   -12.616  2.00000
   446   -12.616  2.00000
   447   -12.614  2.00000
   448   -12.609  2.00000
   449   -12.609  2.00000
   450   -12.608  2.00000
   451   -12.601  2.00000
   452   -12.601  2.00000
   453   -12.598  2.00000
   454   -12.598  2.00000
   455   -12.593  2.00000
   456   -12.593  2.00000
   457   -12.529  2.00000
   458   -12.529  2.00000
   459   -12.525  2.00000
   460   -12.515  2.00000
   461   -12.515  2.00000
   462   -12.515  2.00000
   463   -12.512  2.00000
   464   -12.511  2.00000
   465   -12.511  2.00000
   466   -12.496  2.00000
   467   -12.496  2.00000
   468   -12.493  2.00000
   469   -12.450  2.00000
   470   -12.450  2.00000
   471   -12.447  2.00000
   472   -12.447  2.00000
   473   -11.738  2.00000
   474   -11.738  2.00000
   475   -11.736  2.00000
   476   -11.736  2.00000
   477   -11.732  2.00000
   478   -11.729  2.00000
   479   -11.714  2.00000
   480   -11.710  2.00000
   481   -11.709  2.00000
   482   -11.709  2.00000
   483   -11.706  2.00000
   484   -11.706  2.00000
   485   -11.662  2.00000
   486   -11.662  2.00000
   487   -11.659  2.00000
   488   -11.659  2.00000
   489   -11.618  2.00000
   490   -11.615  2.00000
   491   -11.598  2.00000
   492   -11.596  2.00000
   493   -11.587  2.00000
   494   -11.587  2.00000
   495   -11.586  2.00000
   496   -11.586  2.00000
   497   -11.577  2.00000
   498   -11.576  2.00000
   499   -11.550  2.00000
   500   -11.550  2.00000
   501   -11.549  2.00000
   502   -11.549  2.00000
   503   -11.526  2.00000
   504   -11.525  2.00000
   505   -11.490  2.00000
   506   -11.482  2.00000
   507   -11.482  2.00000
   508   -11.479  2.00000
   509   -11.476  2.00000
   510   -11.474  2.00000
   511   -11.474  2.00000
   512   -11.467  2.00000
   513   -11.464  2.00000
   514   -11.461  2.00000
   515   -11.461  2.00000
   516   -11.459  2.00000
   517   -11.457  2.00000
   518   -11.457  2.00000
   519   -11.454  2.00000
   520   -11.454  2.00000
   521   -11.454  2.00000
   522   -11.453  2.00000
   523   -11.445  2.00000
   524   -11.445  2.00000
   525   -11.436  2.00000
   526   -11.427  2.00000
   527   -11.425  2.00000
   528   -11.425  2.00000
   529   -11.415  2.00000
   530   -11.415  2.00000
   531   -11.373  2.00000
   532   -11.373  2.00000
   533   -11.372  2.00000
   534   -11.372  2.00000
   535   -11.348  2.00000
   536   -11.342  2.00000
   537   -11.342  2.00000
   538   -11.333  2.00000
   539   -11.331  2.00000
   540   -11.331  2.00000
   541   -11.324  2.00000
   542   -11.323  2.00000
   543   -11.323  2.00000
   544   -11.317  2.00000
   545   -11.312  2.00000
   546   -11.312  2.00000
   547   -11.277  2.00000
   548   -11.271  2.00000
   549   -11.271  2.00000
   550   -11.266  2.00000
   551   -11.260  2.00000
   552   -11.259  2.00000
   553   -11.259  2.00000
   554   -11.246  2.00000
   555   -11.245  2.00000
   556   -11.245  2.00000
   557   -11.236  2.00000
   558   -11.236  2.00000
   559   -11.230  2.00000
   560   -11.227  2.00000
   561   -11.196  2.00000
   562   -11.196  2.00000
   563   -11.188  2.00000
   564   -11.188  2.00000
   565   -11.186  2.00000
   566   -11.186  2.00000
   567   -11.139  2.00000
   568   -11.139  2.00000
   569   -11.120  2.00000
   570   -11.120  2.00000
   571   -11.119  2.00000
   572   -11.119  2.00000
   573   -11.111  2.00000
   574   -11.101  2.00000
   575   -11.094  2.00000
   576   -11.094  2.00000
   577   -11.094  2.00000
   578   -11.094  2.00000
   579   -11.085  2.00000
   580   -11.085  2.00000
   581   -11.079  2.00000
   582   -11.079  2.00000
   583   -11.077  2.00000
   584   -11.072  2.00000
   585   -10.959  2.00000
   586   -10.959  2.00000
   587   -10.959  2.00000
   588   -10.959  2.00000
   589   -10.941  2.00000
   590   -10.941  2.00000
   591   -10.939  2.00000
   592   -10.939  2.00000
   593   -10.933  2.00000
   594   -10.930  2.00000
   595   -10.925  2.00000
   596   -10.924  2.00000
   597   -10.882  2.00000
   598   -10.882  2.00000
   599   -10.880  2.00000
   600   -10.880  2.00000
   601   -10.870  2.00000
   602   -10.870  2.00000
   603   -10.811  2.00000
   604   -10.805  2.00000
   605   -10.803  2.00000
   606   -10.803  2.00000
   607   -10.799  2.00000
   608   -10.799  2.00000
   609   -10.794  2.00000
   610   -10.794  2.00000
   611   -10.793  2.00000
   612   -10.793  2.00000
   613   -10.793  2.00000
   614   -10.789  2.00000
   615   -10.756  2.00000
   616   -10.756  2.00000
   617   -10.743  2.00000
   618   -10.743  2.00000
   619   -10.740  2.00000
   620   -10.737  2.00000
   621   -10.734  2.00000
   622   -10.734  2.00000
   623   -10.733  2.00000
   624   -10.733  2.00000
   625   -10.729  2.00000
   626   -10.729  2.00000
   627   -10.726  2.00000
   628   -10.721  2.00000
   629   -10.721  2.00000
   630   -10.719  2.00000
   631   -10.717  2.00000
   632   -10.717  2.00000
   633   -10.713  2.00000
   634   -10.713  2.00000
   635   -10.705  2.00000
   636   -10.705  2.00000
   637   -10.697  2.00000
   638   -10.685  2.00000
   639   -10.685  2.00000
   640   -10.682  2.00000
   641   -10.682  2.00000
   642   -10.679  2.00000
   643   -10.676  2.00000
   644   -10.665  2.00000
   645   -10.665  2.00000
   646   -10.652  2.00000
   647   -10.641  2.00000
   648   -10.634  2.00000
   649   -10.624  2.00000
   650   -10.624  2.00000
   651   -10.624  2.00000
   652   -10.620  2.00000
   653   -10.619  2.00000
   654   -10.612  2.00000
   655   -10.611  2.00000
   656   -10.600  2.00000
   657   -10.594  2.00000
   658   -10.578  2.00000
   659   -10.578  2.00000
   660   -10.572  2.00000
   661   -10.569  2.00000
   662   -10.569  2.00000
   663   -10.568  2.00000
   664   -10.560  2.00000
   665   -10.554  2.00000
   666   -10.554  2.00000
   667   -10.549  2.00000
   668   -10.549  2.00000
   669   -10.541  2.00000
   670   -10.540  2.00000
   671   -10.540  2.00000
   672   -10.538  2.00000
   673   -10.526  2.00000
   674   -10.526  2.00000
   675   -10.522  2.00000
   676   -10.520  2.00000
   677   -10.508  2.00000
   678   -10.508  2.00000
   679   -10.491  2.00000
   680   -10.491  2.00000
   681   -10.483  2.00000
   682   -10.477  2.00000
   683   -10.465  2.00000
   684   -10.455  2.00000
   685   -10.455  2.00000
   686   -10.452  2.00000
   687   -10.451  2.00000
   688   -10.451  2.00000
   689   -10.419  2.00000
   690   -10.419  2.00000
   691   -10.405  2.00000
   692   -10.402  2.00000
   693   -10.401  2.00000
   694   -10.391  2.00000
   695   -10.381  2.00000
   696   -10.367  2.00000
   697   -10.367  2.00000
   698   -10.364  2.00000
   699   -10.364  2.00000
   700   -10.352  2.00000
   701   -10.351  2.00000
   702   -10.351  2.00000
   703   -10.347  2.00000
   704   -10.347  2.00000
   705   -10.345  2.00000
   706   -10.343  2.00000
   707   -10.342  2.00000
   708   -10.342  2.00000
   709   -10.333  2.00000
   710   -10.333  2.00000
   711   -10.333  2.00000
   712   -10.325  2.00000
   713   -10.325  2.00000
   714   -10.325  2.00000
   715   -10.324  2.00000
   716   -10.322  2.00000
   717   -10.322  2.00000
   718   -10.321  2.00000
   719   -10.321  2.00000
   720   -10.313  2.00000
   721   -10.310  2.00000
   722   -10.310  2.00000
   723   -10.306  2.00000
   724   -10.303  2.00000
   725   -10.303  2.00000
   726   -10.300  2.00000
   727   -10.294  2.00000
   728   -10.292  2.00000
   729   -10.292  2.00000
   730   -10.283  2.00000
   731   -10.279  2.00000
   732   -10.279  2.00000
   733   -10.271  2.00000
   734   -10.271  2.00000
   735   -10.247  2.00000
   736   -10.230  2.00000
   737   -10.212  2.00000
   738   -10.212  2.00000
   739   -10.209  2.00000
   740   -10.209  2.00000
   741   -10.197  2.00000
   742   -10.192  2.00000
   743   -10.178  2.00000
   744   -10.178  2.00000
   745   -10.174  2.00000
   746   -10.174  2.00000
   747   -10.159  2.00000
   748   -10.159  2.00000
   749   -10.146  2.00000
   750   -10.146  2.00000
   751   -10.129  2.00000
   752   -10.129  2.00000
   753   -10.129  2.00000
   754   -10.120  2.00000
   755   -10.115  2.00000
   756   -10.115  2.00000
   757   -10.107  2.00000
   758   -10.107  2.00000
   759   -10.096  2.00000
   760   -10.096  2.00000
   761   -10.093  2.00000
   762   -10.086  2.00000
   763   -10.082  2.00000
   764   -10.082  2.00000
   765   -10.080  2.00000
   766   -10.080  2.00000
   767   -10.075  2.00000
   768   -10.075  2.00000
   769   -10.066  2.00000
   770   -10.066  2.00000
   771   -10.061  2.00000
   772   -10.056  2.00000
   773   -10.051  2.00000
   774   -10.051  2.00000
   775   -10.039  2.00000
   776   -10.039  2.00000
   777   -10.036  2.00000
   778   -10.036  2.00000
   779   -10.032  2.00000
   780   -10.026  2.00000
   781   -10.023  2.00000
   782   -10.013  2.00000
   783   -10.008  2.00000
   784   -10.008  2.00000
   785   -10.007  2.00000
   786    -9.994  2.00000
   787    -9.994  2.00000
   788    -9.987  2.00000
   789    -9.987  2.00000
   790    -9.984  2.00000
   791    -9.979  2.00000
   792    -9.973  2.00000
   793    -9.973  2.00000
   794    -9.961  2.00000
   795    -9.961  2.00000
   796    -9.955  2.00000
   797    -9.955  2.00000
   798    -9.954  2.00000
   799    -9.937  2.00000
   800    -9.931  2.00000
   801    -9.925  2.00000
   802    -9.925  2.00000
   803    -9.906  2.00000
   804    -9.903  2.00000
   805    -9.887  2.00000
   806    -9.885  2.00000
   807    -9.885  2.00000
   808    -9.883  2.00000
   809    -9.879  2.00000
   810    -9.879  2.00000
   811    -9.873  2.00000
   812    -9.873  2.00000
   813    -9.863  2.00000
   814    -9.863  2.00000
   815    -9.846  2.00000
   816    -9.844  2.00000
   817    -9.839  2.00000
   818    -9.839  2.00000
   819    -9.839  2.00000
   820    -9.834  2.00000
   821    -9.831  2.00000
   822    -9.831  2.00000
   823    -9.827  2.00000
   824    -9.827  2.00000
   825    -9.819  2.00000
   826    -9.819  2.00000
   827    -9.812  2.00000
   828    -9.805  2.00000
   829    -9.797  2.00000
   830    -9.797  2.00000
   831    -9.789  2.00000
   832    -9.780  2.00000
   833    -9.780  2.00000
   834    -9.779  2.00000
   835    -9.779  2.00000
   836    -9.757  2.00000
   837    -9.757  2.00000
   838    -9.755  2.00000
   839    -9.754  2.00000
   840    -9.754  2.00000
   841    -9.751  2.00000
   842    -9.751  2.00000
   843    -9.749  2.00000
   844    -9.741  2.00000
   845    -9.741  2.00000
   846    -9.735  2.00000
   847    -9.735  2.00000
   848    -9.728  2.00000
   849    -9.724  2.00000
   850    -9.724  2.00000
   851    -9.722  2.00000
   852    -9.722  2.00000
   853    -9.715  2.00000
   854    -9.715  2.00000
   855    -9.710  2.00000
   856    -9.710  2.00000
   857    -9.705  2.00000
   858    -9.705  2.00000
   859    -9.701  2.00000
   860    -9.701  2.00000
   861    -9.698  2.00000
   862    -9.698  2.00000
   863    -9.695  2.00000
   864    -9.695  2.00000
   865    -9.688  2.00000
   866    -9.680  2.00000
   867    -9.668  2.00000
   868    -9.665  2.00000
   869    -9.665  2.00000
   870    -9.659  2.00000
   871    -9.659  2.00000
   872    -9.652  2.00000
   873    -9.642  2.00000
   874    -9.642  2.00000
   875    -9.642  2.00000
   876    -9.630  2.00000
   877    -9.629  2.00000
   878    -9.629  2.00000
   879    -9.626  2.00000
   880    -9.620  2.00000
   881    -9.614  2.00000
   882    -9.614  2.00000
   883    -9.612  2.00000
   884    -9.608  2.00000
   885    -9.608  2.00000
   886    -9.605  2.00000
   887    -9.594  2.00000
   888    -9.591  2.00000
   889    -9.591  2.00000
   890    -9.588  2.00000
   891    -9.580  2.00000
   892    -9.580  2.00000
   893    -9.573  2.00000
   894    -9.573  2.00000
   895    -9.573  2.00000
   896    -9.559  2.00000
   897    -9.552  2.00000
   898    -9.552  2.00000
   899    -9.540  2.00000
   900    -9.536  2.00000
   901    -9.520  2.00000
   902    -9.520  2.00000
   903    -9.519  2.00000
   904    -9.519  2.00000
   905    -9.517  2.00000
   906    -9.516  2.00000
   907    -9.516  2.00000
   908    -9.511  2.00000
   909    -9.511  2.00000
   910    -9.511  2.00000
   911    -9.507  2.00000
   912    -9.498  2.00000
   913    -9.498  2.00000
   914    -9.493  2.00000
   915    -9.467  2.00000
   916    -9.467  2.00000
   917    -9.461  2.00000
   918    -9.461  2.00000
   919    -9.454  2.00000
   920    -9.454  2.00000
   921    -9.449  2.00000
   922    -9.433  2.00000
   923    -9.431  2.00000
   924    -9.429  2.00000
   925    -9.420  2.00000
   926    -9.420  2.00000
   927    -9.405  2.00000
   928    -9.405  2.00000
   929    -9.403  2.00000
   930    -9.403  2.00000
   931    -9.400  2.00000
   932    -9.387  2.00000
   933    -9.386  2.00000
   934    -9.386  2.00000
   935    -9.385  2.00000
   936    -9.385  2.00000
   937    -9.371  2.00000
   938    -9.349  2.00000
   939    -9.348  2.00000
   940    -9.348  2.00000
   941    -9.335  2.00000
   942    -9.334  2.00000
   943    -9.334  2.00000
   944    -9.330  2.00000
   945    -9.328  2.00000
   946    -9.325  2.00000
   947    -9.325  2.00000
   948    -9.324  2.00000
   949    -9.324  2.00000
   950    -9.318  2.00000
   951    -9.318  2.00000
   952    -9.311  2.00000
   953    -9.311  2.00000
   954    -9.302  2.00000
   955    -9.300  2.00000
   956    -9.300  2.00000
   957    -9.296  2.00000
   958    -9.296  2.00000
   959    -9.293  2.00000
   960    -9.242  2.00000
   961    -9.238  2.00000
   962    -9.227  2.00000
   963    -9.227  2.00000
   964    -9.225  2.00000
   965    -9.225  2.00000
   966    -9.217  2.00000
   967    -9.217  2.00000
   968    -9.212  2.00000
   969    -9.205  2.00000
   970    -9.201  2.00000
   971    -9.201  2.00000
   972    -9.195  2.00000
   973    -9.193  2.00000
   974    -9.190  2.00000
   975    -9.190  2.00000
   976    -9.189  2.00000
   977    -9.189  2.00000
   978    -9.184  2.00000
   979    -9.181  2.00000
   980    -9.181  2.00000
   981    -9.177  2.00000
   982    -9.177  2.00000
   983    -9.155  2.00000
   984    -9.153  2.00000
   985    -9.143  2.00000
   986    -9.139  2.00000
   987    -9.139  2.00000
   988    -9.139  2.00000
   989    -9.137  2.00000
   990    -9.137  2.00000
   991    -9.132  2.00000
   992    -9.128  2.00000
   993    -9.121  2.00000
   994    -9.118  2.00000
   995    -9.118  2.00000
   996    -9.103  2.00000
   997    -9.103  2.00000
   998    -9.096  2.00000
   999    -9.084  2.00000
  1000    -9.084  2.00000
  1001    -9.072  2.00000
  1002    -9.072  2.00000
  1003    -9.056  2.00000
  1004    -9.056  2.00000
  1005    -9.053  2.00000
  1006    -9.053  2.00000
  1007    -9.039  2.00000
  1008    -9.025  2.00000
  1009    -9.022  2.00000
  1010    -9.021  2.00000
  1011    -9.021  2.00000
  1012    -9.020  2.00000
  1013    -9.019  2.00000
  1014    -9.018  2.00000
  1015    -8.998  2.00000
  1016    -8.998  2.00000
  1017    -8.996  2.00000
  1018    -8.996  2.00000
  1019    -8.981  2.00000
  1020    -8.979  2.00000
  1021    -8.962  2.00000
  1022    -8.960  2.00000
  1023    -8.960  2.00000
  1024    -8.956  2.00000
  1025    -8.956  2.00000
  1026    -8.955  2.00000
  1027    -8.953  2.00000
  1028    -8.951  2.00000
  1029    -8.947  2.00000
  1030    -8.947  2.00000
  1031    -8.945  2.00000
  1032    -8.944  2.00000
  1033    -8.942  2.00000
  1034    -8.942  2.00000
  1035    -8.882  2.00000
  1036    -8.882  2.00000
  1037    -8.880  2.00000
  1038    -8.880  2.00000
  1039    -8.871  2.00000
  1040    -8.870  2.00000
  1041    -8.864  2.00000
  1042    -8.861  2.00000
  1043    -8.860  2.00000
  1044    -8.860  2.00000
  1045    -8.859  2.00000
  1046    -8.859  2.00000
  1047    -8.758  2.00000
  1048    -8.758  2.00000
  1049    -8.748  2.00000
  1050    -8.748  2.00000
  1051    -8.731  2.00000
  1052    -8.705  2.00000
  1053    -8.701  2.00000
  1054    -8.701  2.00000
  1055    -8.700  2.00000
  1056    -8.700  2.00000
  1057    -8.684  2.00000
  1058    -8.684  2.00000
  1059    -8.682  2.00000
  1060    -8.679  2.00000
  1061    -8.679  2.00000
  1062    -8.665  2.00000
  1063    -8.644  2.00000
  1064    -8.643  2.00000
  1065    -8.625  2.00000
  1066    -8.625  2.00000
  1067    -8.622  2.00000
  1068    -8.622  2.00000
  1069    -8.615  2.00000
  1070    -8.615  2.00000
  1071    -8.612  2.00000
  1072    -8.610  2.00000
  1073    -8.610  2.00000
  1074    -8.604  2.00000
  1075    -8.604  2.00000
  1076    -8.600  2.00000
  1077    -8.600  2.00000
  1078    -8.600  2.00000
  1079    -8.597  2.00000
  1080    -8.592  2.00000
  1081    -8.576  2.00000
  1082    -8.570  2.00000
  1083    -8.561  2.00000
  1084    -8.561  2.00000
  1085    -8.553  2.00000
  1086    -8.552  2.00000
  1087    -8.552  2.00000
  1088    -8.546  2.00000
  1089    -8.546  2.00000
  1090    -8.542  2.00000
  1091    -8.541  2.00000
  1092    -8.541  2.00000
  1093    -8.529  2.00000
  1094    -8.511  2.00000
  1095    -8.503  2.00000
  1096    -8.503  2.00000
  1097    -8.500  2.00000
  1098    -8.500  2.00000
  1099    -8.490  2.00000
  1100    -8.490  2.00000
  1101    -8.482  2.00000
  1102    -8.482  2.00000
  1103    -8.478  2.00000
  1104    -8.476  2.00000
  1105    -8.476  2.00000
  1106    -8.470  2.00000
  1107    -8.443  2.00000
  1108    -8.440  2.00000
  1109    -8.440  2.00000
  1110    -8.433  2.00000
  1111    -8.433  2.00000
  1112    -8.426  2.00000
  1113    -8.347  2.00000
  1114    -8.347  2.00000
  1115    -8.344  2.00000
  1116    -8.344  2.00000
  1117    -8.279  2.00000
  1118    -8.270  2.00000
  1119    -8.239  2.00000
  1120    -8.224  2.00000
  1121    -8.224  2.00000
  1122    -8.217  2.00000
  1123    -8.211  2.00000
  1124    -8.211  2.00000
  1125    -8.209  2.00000
  1126    -8.209  2.00000
  1127    -8.208  2.00000
  1128    -8.207  2.00000
  1129    -8.206  2.00000
  1130    -8.206  2.00000
  1131    -8.204  2.00000
  1132    -8.198  2.00000
  1133    -8.196  2.00000
  1134    -8.196  2.00000
  1135    -8.195  2.00000
  1136    -8.195  2.00000
  1137    -8.161  2.00000
  1138    -8.161  2.00000
  1139    -8.159  2.00000
  1140    -8.159  2.00000
  1141    -8.137  2.00000
  1142    -8.137  2.00000
  1143    -8.128  2.00000
  1144    -8.128  2.00000
  1145    -8.128  2.00000
  1146    -8.116  2.00000
  1147    -8.105  2.00000
  1148    -8.105  2.00000
  1149    -8.103  2.00000
  1150    -8.103  2.00000
  1151    -8.101  2.00000
  1152    -8.097  2.00000
  1153    -8.087  2.00000
  1154    -8.087  2.00000
  1155    -8.081  2.00000
  1156    -8.081  2.00000
  1157    -8.071  2.00000
  1158    -8.064  2.00000
  1159    -8.059  2.00000
  1160    -8.059  2.00000
  1161    -8.058  2.00000
  1162    -8.058  2.00000
  1163    -8.055  2.00000
  1164    -8.055  2.00000
  1165    -8.046  2.00000
  1166    -8.040  2.00000
  1167    -8.025  2.00000
  1168    -8.025  2.00000
  1169    -8.020  2.00000
  1170    -8.020  2.00000
  1171    -7.993  2.00000
  1172    -7.993  2.00000
  1173    -7.989  2.00000
  1174    -7.974  2.00000
  1175    -7.974  2.00000
  1176    -7.969  2.00000
  1177    -7.954  2.00000
  1178    -7.954  2.00000
  1179    -7.944  2.00000
  1180    -7.944  2.00000
  1181    -7.940  2.00000
  1182    -7.931  2.00000
  1183    -7.915  2.00000
  1184    -7.905  2.00000
  1185    -7.905  2.00000
  1186    -7.894  2.00000
  1187    -7.894  2.00000
  1188    -7.890  2.00000
  1189    -7.889  2.00000
  1190    -7.875  2.00000
  1191    -7.842  2.00000
  1192    -7.842  2.00000
  1193    -7.833  2.00000
  1194    -7.833  2.00000
  1195    -7.789  2.00000
  1196    -7.784  2.00000
  1197    -7.776  2.00000
  1198    -7.776  2.00000
  1199    -7.771  2.00000
  1200    -7.770  2.00000
  1201    -7.770  2.00000
  1202    -7.757  2.00000
  1203    -7.757  2.00000
  1204    -7.752  2.00000
  1205    -7.752  2.00000
  1206    -7.726  2.00000
  1207    -7.723  2.00000
  1208    -7.723  2.00000
  1209    -7.722  2.00000
  1210    -7.721  2.00000
  1211    -7.721  2.00000
  1212    -7.693  2.00000
  1213    -7.693  2.00000
  1214    -7.688  2.00000
  1215    -7.688  2.00000
  1216    -7.682  2.00000
  1217    -7.651  2.00000
  1218    -7.649  2.00000
  1219    -7.623  2.00000
  1220    -7.623  2.00000
  1221    -7.621  2.00000
  1222    -7.621  2.00000
  1223    -7.620  2.00000
  1224    -7.620  2.00000
  1225    -7.617  2.00000
  1226    -7.617  2.00000
  1227    -7.591  2.00000
  1228    -7.591  2.00000
  1229    -7.589  2.00000
  1230    -7.589  2.00000
  1231    -7.587  2.00000
  1232    -7.586  2.00000
  1233    -7.568  2.00000
  1234    -7.563  2.00000
  1235    -7.562  2.00000
  1236    -7.560  2.00000
  1237    -7.557  2.00000
  1238    -7.557  2.00000
  1239    -7.554  2.00000
  1240    -7.554  2.00000
  1241    -7.550  2.00000
  1242    -7.547  2.00000
  1243    -7.547  2.00000
  1244    -7.536  2.00000
  1245    -7.536  2.00000
  1246    -7.529  2.00000
  1247    -7.464  2.00000
  1248    -7.454  2.00000
  1249    -7.447  2.00000
  1250    -7.447  2.00000
  1251    -7.439  2.00000
  1252    -7.433  2.00000
  1253    -7.433  2.00000
  1254    -7.421  2.00000
  1255    -7.399  2.00000
  1256    -7.399  2.00000
  1257    -7.395  2.00000
  1258    -7.395  2.00000
  1259    -7.385  2.00000
  1260    -7.385  2.00000
  1261    -7.382  2.00000
  1262    -7.382  2.00000
  1263    -7.360  2.00000
  1264    -7.357  2.00000
  1265    -7.357  2.00000
  1266    -7.354  2.00000
  1267    -7.354  2.00000
  1268    -7.354  2.00000
  1269    -7.344  2.00000
  1270    -7.344  2.00000
  1271    -7.342  2.00000
  1272    -7.342  2.00000
  1273    -7.328  2.00000
  1274    -7.327  2.00000
  1275    -7.316  2.00000
  1276    -7.316  2.00000
  1277    -7.314  2.00000
  1278    -7.314  2.00000
  1279    -7.300  2.00000
  1280    -7.292  2.00000
  1281    -7.281  2.00000
  1282    -7.281  2.00000
  1283    -7.277  2.00000
  1284    -7.277  2.00000
  1285    -7.261  2.00000
  1286    -7.260  2.00000
  1287    -7.229  2.00000
  1288    -7.224  2.00000
  1289    -7.224  2.00000
  1290    -7.224  2.00000
  1291    -7.222  2.00000
  1292    -7.222  2.00000
  1293    -7.174  2.00000
  1294    -7.172  2.00000
  1295    -7.172  2.00000
  1296    -7.170  2.00000
  1297    -7.170  2.00000
  1298    -7.170  2.00000
  1299    -7.141  2.00000
  1300    -7.141  2.00000
  1301    -7.141  2.00000
  1302    -7.141  2.00000
  1303    -7.141  2.00000
  1304    -7.141  2.00000
  1305    -7.070  2.00000
  1306    -7.070  2.00000
  1307    -7.070  2.00000
  1308    -7.070  2.00000
  1309    -7.070  2.00000
  1310    -7.070  2.00000
  1311    -7.066  2.00000
  1312    -7.065  2.00000
  1313    -7.008  2.00000
  1314    -7.008  2.00000
  1315    -7.007  2.00000
  1316    -7.005  2.00000
  1317    -7.005  2.00000
  1318    -7.002  2.00000
  1319    -7.000  2.00000
  1320    -7.000  2.00000
  1321    -6.999  2.00000
  1322    -6.999  2.00000
  1323    -6.983  2.00000
  1324    -6.983  2.00000
  1325    -6.980  2.00000
  1326    -6.980  2.00000
  1327    -6.980  2.00000
  1328    -6.980  2.00000
  1329    -6.978  2.00000
  1330    -6.978  2.00000
  1331    -6.977  2.00000
  1332    -6.975  2.00000
  1333    -6.973  2.00000
  1334    -6.973  2.00000
  1335    -6.973  2.00000
  1336    -6.969  2.00000
  1337    -6.969  2.00000
  1338    -6.969  2.00000
  1339    -6.969  2.00000
  1340    -6.961  2.00000
  1341    -6.920  2.00000
  1342    -6.918  2.00000
  1343    -6.918  2.00000
  1344    -6.912  2.00000
  1345    -6.912  2.00000
  1346    -6.908  2.00000
  1347    -6.898  2.00000
  1348    -6.898  2.00000
  1349    -6.896  2.00000
  1350    -6.895  2.00000
  1351    -6.893  2.00000
  1352    -6.893  2.00000
  1353    -6.886  2.00000
  1354    -6.885  2.00000
  1355    -6.885  2.00000
  1356    -6.880  2.00000
  1357    -6.880  2.00000
  1358    -6.879  2.00000
  1359    -6.861  2.00000
  1360    -6.860  2.00000
  1361    -6.858  2.00000
  1362    -6.858  2.00000
  1363    -6.828  2.00000
  1364    -6.828  2.00000
  1365    -6.828  2.00000
  1366    -6.826  2.00000
  1367    -6.826  2.00000
  1368    -6.820  2.00000
  1369    -6.820  2.00000
  1370    -6.816  2.00000
  1371    -6.813  2.00000
  1372    -6.813  2.00000
  1373    -6.810  2.00000
  1374    -6.810  2.00000
  1375    -6.804  2.00000
  1376    -6.801  2.00000
  1377    -6.801  2.00000
  1378    -6.796  2.00000
  1379    -6.711  2.00000
  1380    -6.711  2.00000
  1381    -6.708  2.00000
  1382    -6.708  2.00000
  1383    -6.705  2.00000
  1384    -6.703  2.00000
  1385    -6.694  2.00000
  1386    -6.694  2.00000
  1387    -6.689  2.00000
  1388    -6.689  2.00000
  1389    -6.651  2.00000
  1390    -6.646  2.00000
  1391    -6.646  2.00000
  1392    -6.638  2.00000
  1393    -6.637  2.00000
  1394    -6.637  2.00000
  1395    -6.618  2.00000
  1396    -6.611  2.00000
  1397    -6.610  2.00000
  1398    -6.610  2.00000
  1399    -6.605  2.00000
  1400    -6.605  2.00000
  1401    -6.578  2.00000
  1402    -6.567  2.00000
  1403    -6.567  2.00000
  1404    -6.561  2.00000
  1405    -6.558  2.00000
  1406    -6.558  2.00000
  1407    -6.542  2.00000
  1408    -6.542  2.00000
  1409    -6.542  2.00000
  1410    -6.535  2.00000
  1411    -6.535  2.00000
  1412    -6.533  2.00000
  1413    -6.518  2.00000
  1414    -6.518  2.00000
  1415    -6.515  2.00000
  1416    -6.510  2.00000
  1417    -6.510  2.00000
  1418    -6.506  2.00000
  1419    -6.500  2.00000
  1420    -6.498  2.00000
  1421    -6.498  2.00000
  1422    -6.492  2.00000
  1423    -6.490  2.00000
  1424    -6.490  2.00000
  1425    -6.484  2.00000
  1426    -6.484  2.00000
  1427    -6.482  2.00000
  1428    -6.482  2.00000
  1429    -6.474  2.00000
  1430    -6.468  2.00000
  1431    -6.468  2.00000
  1432    -6.462  2.00000
  1433    -6.462  2.00000
  1434    -6.459  2.00000
  1435    -6.421  2.00000
  1436    -6.420  2.00000
  1437    -6.420  2.00000
  1438    -6.420  2.00000
  1439    -6.420  2.00000
  1440    -6.420  2.00000
  1441    -6.378  2.00000
  1442    -6.378  2.00000
  1443    -6.365  2.00000
  1444    -6.365  2.00000
  1445    -6.364  2.00000
  1446    -6.364  2.00000
  1447    -6.266  2.00000
  1448    -6.266  2.00000
  1449    -6.266  2.00000
  1450    -6.266  2.00000
  1451    -6.265  2.00000
  1452    -6.265  2.00000
  1453    -6.263  2.00000
  1454    -6.263  2.00000
  1455    -6.262  2.00000
  1456    -6.262  2.00000
  1457    -6.262  2.00000
  1458    -6.262  2.00000
  1459    -6.226  2.00000
  1460    -6.226  2.00000
  1461    -6.194  2.00000
  1462    -6.193  2.00000
  1463    -6.193  2.00000
  1464    -6.193  2.00000
  1465    -6.193  2.00000
  1466    -6.193  2.00000
  1467    -6.156  2.00000
  1468    -6.156  2.00000
  1469    -6.155  2.00000
  1470    -6.155  2.00000
  1471    -5.990  2.00000
  1472    -5.990  2.00000
  1473    -5.989  2.00000
  1474    -5.989  2.00000
  1475    -5.989  2.00000
  1476    -5.989  2.00000
  1477    -5.840  2.00000
  1478    -5.840  2.00000
  1479    -5.840  2.00000
  1480    -5.840  2.00000
  1481    -5.840  2.00000
  1482    -5.840  2.00000
  1483    -5.823  2.00000
  1484    -5.823  2.00000
  1485    -5.823  2.00000
  1486    -5.822  2.00000
  1487    -5.822  2.00000
  1488    -5.822  2.00000
  1489    -2.923  0.00000
  1490    -2.923  0.00000
  1491    -2.895  0.00000
  1492    -2.895  0.00000
  1493    -2.895  0.00000
  1494    -2.895  0.00000
  1495    -2.605  0.00000
  1496    -2.605  0.00000
  1497    -2.604  0.00000
  1498    -2.604  0.00000
  1499    -2.504  0.00000
  1500    -2.504  0.00000
  1501    -2.503  0.00000
  1502    -2.503  0.00000
  1503    -2.451  0.00000
  1504    -2.451  0.00000
  1505    -2.410  0.00000
  1506    -2.410  0.00000
  1507    -2.409  0.00000
  1508    -2.408  0.00000
  1509    -2.408  0.00000
  1510    -2.407  0.00000
  1511    -2.407  0.00000
  1512    -2.407  0.00000
  1513    -2.407  0.00000
  1514    -2.404  0.00000
  1515    -2.404  0.00000
  1516    -2.404  0.00000
  1517    -2.329  0.00000
  1518    -2.329  0.00000
  1519    -2.328  0.00000
  1520    -2.328  0.00000
  1521    -2.328  0.00000
  1522    -2.327  0.00000
  1523    -2.245  0.00000
  1524    -2.243  0.00000
  1525    -2.243  0.00000
  1526    -2.242  0.00000
  1527    -2.240  0.00000
  1528    -2.240  0.00000
  1529    -2.110  0.00000
  1530    -2.110  0.00000
  1531    -2.034  0.00000
  1532    -2.034  0.00000
  1533    -2.034  0.00000
  1534    -2.034  0.00000
  1535    -2.032  0.00000
  1536    -2.032  0.00000
  1537    -1.857  0.00000
  1538    -1.857  0.00000
  1539    -1.852  0.00000
  1540    -1.852  0.00000
  1541    -1.851  0.00000
  1542    -1.847  0.00000
  1543    -1.667  0.00000
  1544    -1.667  0.00000
  1545    -1.667  0.00000
  1546    -1.663  0.00000
  1547    -1.663  0.00000
  1548    -1.663  0.00000
  1549    -1.529  0.00000
  1550    -1.529  0.00000
  1551    -1.529  0.00000
  1552    -1.529  0.00000
  1553    -1.529  0.00000
  1554    -1.529  0.00000
  1555    -1.525  0.00000
  1556    -1.525  0.00000
  1557    -1.525  0.00000
  1558    -1.525  0.00000
  1559    -1.525  0.00000
  1560    -1.525  0.00000
  1561    -1.507  0.00000
  1562    -1.507  0.00000
  1563    -1.507  0.00000
  1564    -1.507  0.00000
  1565    -1.361  0.00000
  1566    -1.361  0.00000
  1567    -1.361  0.00000
  1568    -1.358  0.00000
  1569    -1.358  0.00000
  1570    -1.358  0.00000
  1571    -1.352  0.00000
  1572    -1.352  0.00000
  1573    -1.351  0.00000
  1574    -1.350  0.00000
  1575    -1.350  0.00000
  1576    -1.349  0.00000
  1577    -1.249  0.00000
  1578    -1.249  0.00000
  1579    -1.249  0.00000
  1580    -1.249  0.00000
  1581    -1.249  0.00000
  1582    -1.249  0.00000
  1583    -1.246  0.00000
  1584    -1.246  0.00000
  1585    -1.246  0.00000
  1586    -1.245  0.00000
  1587    -1.245  0.00000
  1588    -1.245  0.00000
  1589    -1.124  0.00000
  1590    -1.123  0.00000
  1591    -1.117  0.00000
  1592    -1.114  0.00000
  1593    -1.114  0.00000
  1594    -1.106  0.00000
  1595    -1.103  0.00000
  1596    -1.103  0.00000
  1597    -1.096  0.00000
  1598    -1.091  0.00000
  1599    -1.091  0.00000
  1600    -1.083  0.00000
  1601    -1.079  0.00000
  1602    -1.079  0.00000
  1603    -1.077  0.00000
  1604    -1.077  0.00000
  1605    -1.006  0.00000
  1606    -1.006  0.00000
  1607    -1.003  0.00000
  1608    -1.003  0.00000
  1609    -1.001  0.00000
  1610    -1.001  0.00000
  1611    -0.995  0.00000
  1612    -0.995  0.00000
  1613    -0.995  0.00000
  1614    -0.995  0.00000
  1615    -0.980  0.00000
  1616    -0.979  0.00000
  1617    -0.007  0.00000
  1618    -0.006  0.00000
  1619     0.040  0.00000
  1620     0.040  0.00000
  1621     0.042  0.00000
  1622     0.047  0.00000
  1623     0.047  0.00000
  1624     0.049  0.00000
  1625     0.123  0.00000
  1626     0.124  0.00000
  1627     0.124  0.00000
  1628     0.124  0.00000
  1629     0.159  0.00000
  1630     0.159  0.00000
  1631     0.233  0.00000
  1632     0.233  0.00000
  1633     0.241  0.00000
  1634     0.241  0.00000
  1635     0.245  0.00000
  1636     0.252  0.00000
  1637     0.670  0.00000
  1638     0.670  0.00000
  1639     0.670  0.00000
  1640     0.670  0.00000
  1641     0.791  0.00000
  1642     0.791  0.00000
  1643     0.792  0.00000
  1644     0.795  0.00000
  1645     0.795  0.00000
  1646     0.796  0.00000
  1647     0.894  0.00000
  1648     0.894  0.00000
  1649     0.896  0.00000
  1650     0.896  0.00000
  1651     0.900  0.00000
  1652     0.901  0.00000
  1653     1.295  0.00000
  1654     1.296  0.00000
  1655     1.400  0.00000
  1656     1.400  0.00000
  1657     1.401  0.00000
  1658     1.408  0.00000
  1659     1.408  0.00000
  1660     1.409  0.00000
  1661     1.428  0.00000
  1662     1.428  0.00000
  1663     1.429  0.00000
  1664     1.435  0.00000
  1665     1.435  0.00000
  1666     1.436  0.00000
  1667     2.279  0.00000
  1668     2.279  0.00000
  1669     2.447  0.00000
  1670     2.447  0.00000
  1671     2.448  0.00000
  1672     2.448  0.00000
  1673     2.558  0.00000
  1674     2.558  0.00000
  1675     2.558  0.00000
  1676     2.558  0.00000
  1677     2.561  0.00000
  1678     2.561  0.00000
  1679     2.580  0.00000
  1680     2.581  0.00000
  1681     2.581  0.00000
  1682     2.581  0.00000
  1683     2.581  0.00000
  1684     2.581  0.00000
  1685     2.805  0.00000
  1686     2.805  0.00000
  1687     3.002  0.00000
  1688     3.002  0.00000
  1689     3.002  0.00000
  1690     3.005  0.00000
  1691     3.005  0.00000
  1692     3.005  0.00000
  1693     3.018  0.00000
  1694     3.020  0.00000
  1695     3.023  0.00000
  1696     3.023  0.00000
  1697     3.026  0.00000
  1698     3.026  0.00000
  1699     3.339  0.00000
  1700     3.339  0.00000
  1701     3.381  0.00000
  1702     3.381  0.00000
  1703     3.382  0.00000
  1704     3.382  0.00000
  1705     3.382  0.00000
  1706     3.383  0.00000
  1707     3.540  0.00000
  1708     3.541  0.00000
  1709     3.541  0.00000
  1710     3.542  0.00000
  1711     3.542  0.00000
  1712     3.543  0.00000
  1713     3.636  0.00000
  1714     3.637  0.00000
  1715     3.637  0.00000
  1716     3.637  0.00000
  1717     3.695  0.00000
  1718     3.695  0.00000
  1719     3.787  0.00000
  1720     3.787  0.00000
  1721     3.787  0.00000
  1722     3.787  0.00000
  1723     3.902  0.00000
  1724     3.903  0.00000
  1725     3.903  0.00000
  1726     3.905  0.00000
  1727     3.905  0.00000
  1728     3.905  0.00000
  1729     3.918  0.00000
  1730     3.919  0.00000
  1731     3.919  0.00000
  1732     3.919  0.00000
  1733     3.920  0.00000
  1734     3.920  0.00000
  1735     4.079  0.00000
  1736     4.079  0.00000
  1737     4.577  0.00000
  1738     4.577  0.00000
  1739     4.577  0.00000
  1740     4.577  0.00000
  1741     4.579  0.00000
  1742     4.579  0.00000
  1743     4.612  0.00000
  1744     4.612  0.00000
  1745     4.612  0.00000
  1746     4.612  0.00000
  1747     4.614  0.00000
  1748     4.614  0.00000
  1749     5.381  0.00000
  1750     5.381  0.00000
  1751     5.381  0.00000
  1752     5.381  0.00000
  1753     5.381  0.00000
  1754     5.381  0.00000
  1755     5.391  0.00000
  1756     5.391  0.00000
  1757     5.391  0.00000
  1758     5.392  0.00000
  1759     5.392  0.00000
  1760     5.392  0.00000
  1761     5.969  0.00000
  1762     5.969  0.00000
  1763     6.095  0.00000
  1764     6.095  0.00000
  1765     6.095  0.00000
  1766     6.095  0.00000
  1767     6.185  0.00000
  1768     6.185  0.00000
  1769     6.289  0.00000
  1770     6.289  0.00000
  1771     6.289  0.00000
  1772     6.289  0.00000
  1773     6.318  0.00000
  1774     6.319  0.00000
  1775     6.414  0.00000
  1776     6.414  0.00000
  1777     6.424  0.00000
  1778     6.424  0.00000
  1779     6.425  0.00000
  1780     6.425  0.00000
  1781     6.594  0.00000
  1782     6.596  0.00000
  1783     6.596  0.00000
  1784     6.602  0.00000
  1785     6.602  0.00000
  1786     6.603  0.00000
  1787     6.611  0.00000
  1788     6.611  0.00000
  1789     6.614  0.00000
  1790     6.615  0.00000
  1791     6.615  0.00000
  1792     6.616  0.00000
  1793     6.641  0.00000
  1794     6.641  0.00000
  1795     6.641  0.00000
  1796     6.641  0.00000
  1797     6.771  0.00000
  1798     6.771  0.00000
  1799     6.774  0.00000
  1800     6.774  0.00000
  1801     6.776  0.00000
  1802     6.786  0.00000
  1803     6.786  0.00000
  1804     6.787  0.00000
  1805     6.791  0.00000
  1806     6.801  0.00000
  1807     6.801  0.00000
  1808     6.803  0.00000
  1809     6.806  0.00000
  1810     6.806  0.00000
  1811     6.809  0.00000
  1812     6.811  0.00000
  1813     6.816  0.00000
  1814     6.816  0.00000
  1815     6.888  0.00000
  1816     6.889  0.00000
  1817     7.145  0.00000
  1818     7.145  0.00000
  1819     7.186  0.00000
  1820     7.186  0.00000
  1821     7.188  0.00000
  1822     7.188  0.00000
  1823     7.210  0.00000
  1824     7.220  0.00000
  1825     7.230  0.00000
  1826     7.230  0.00000
  1827     7.239  0.00000
  1828     7.240  0.00000
  1829     7.240  0.00000
  1830     7.247  0.00000
  1831     7.249  0.00000
  1832     7.249  0.00000
  1833     7.252  0.00000
  1834     7.252  0.00000
  1835     7.252  0.00000
  1836     7.256  0.00000
  1837     7.275  0.00000
  1838     7.275  0.00000
  1839     7.275  0.00000
  1840     7.275  0.00000
  1841     7.281  0.00000
  1842     7.281  0.00000
  1843     7.282  0.00000
  1844     7.282  0.00000
  1845     7.282  0.00000
  1846     7.283  0.00000
  1847     7.296  0.00000
  1848     7.296  0.00000
  1849     7.333  0.00000
  1850     7.333  0.00000
  1851     7.333  0.00000
  1852     7.333  0.00000
  1853     7.394  0.00000
  1854     7.394  0.00000
  1855     7.465  0.00000
  1856     7.466  0.00000
  1857     7.466  0.00000
  1858     7.467  0.00000
  1859     7.528  0.00000
  1860     7.532  0.00000
  1861     7.532  0.00000
  1862     7.535  0.00000
  1863     7.535  0.00000
  1864     7.537  0.00000
  1865     7.543  0.00000
  1866     7.544  0.00000
  1867     7.544  0.00000
  1868     7.545  0.00000
  1869     7.546  0.00000
  1870     7.546  0.00000
  1871     7.557  0.00000
  1872     7.564  0.00000
  1873     7.564  0.00000
  1874     7.581  0.00000
  1875     7.583  0.00000
  1876     7.583  0.00000
  1877     7.590  0.00000
  1878     7.591  0.00000
  1879     7.591  0.00000
  1880     7.599  0.00000
  1881     7.604  0.00000
  1882     7.615  0.00000
  1883     7.615  0.00000
  1884     7.628  0.00000
  1885     7.644  0.00000
  1886     7.644  0.00000
  1887     7.649  0.00000
  1888     7.650  0.00000
  1889     7.658  0.00000
  1890     7.658  0.00000
  1891     7.818  0.00000
  1892     7.818  0.00000
  1893     7.818  0.00000
  1894     7.819  0.00000
  1895     7.819  0.00000
  1896     7.819  0.00000
  1897     8.156  0.00000
  1898     8.156  0.00000
  1899     8.156  0.00000
  1900     8.156  0.00000
  1901     8.222  0.00000
  1902     8.222  0.00000
  1903     8.224  0.00000
  1904     8.224  0.00000
  1905     8.225  0.00000
  1906     8.229  0.00000
  1907     8.323  0.00000
  1908     8.323  0.00000
  1909     8.323  0.00000
  1910     8.324  0.00000
  1911     8.357  0.00000
  1912     8.358  0.00000
  1913     8.358  0.00000
  1914     8.374  0.00000
  1915     8.374  0.00000
  1916     8.392  0.00000
  1917     8.480  0.00000
  1918     8.486  0.00000
  1919     8.486  0.00000
  1920     8.499  0.00000
  1921     8.499  0.00000
  1922     8.507  0.00000
  1923     8.515  0.00000
  1924     8.515  0.00000
  1925     8.520  0.00000
  1926     8.520  0.00000
  1927     8.533  0.00000
  1928     8.557  0.00000
  1929     8.557  0.00000
  1930     8.561  0.00000
  1931     8.569  0.00000
  1932     8.569  0.00000
  1933     8.582  0.00000
  1934     8.590  0.00000
  1935     8.601  0.00000
  1936     8.601  0.00000
  1937     8.619  0.00000
  1938     8.627  0.00000
  1939     8.628  0.00000
  1940     8.661  0.00000
  1941     8.667  0.00000
  1942     8.667  0.00000
  1943     8.672  0.00000
  1944     8.672  0.00000
  1945     8.681  0.00000
  1946     8.683  0.00000
  1947     8.786  0.00000
  1948     8.786  0.00000
  1949     8.787  0.00000
  1950     8.787  0.00000
  1951     8.970  0.00000
  1952     8.971  0.00000
  1953     9.050  0.00000
  1954     9.054  0.00000
  1955     9.076  0.00000
  1956     9.077  0.00000
  1957     9.078  0.00000
  1958     9.078  0.00000
  1959     9.093  0.00000
  1960     9.099  0.00000
  1961     9.099  0.00000
  1962     9.102  0.00000
  1963     9.108  0.00000
  1964     9.108  0.00000
  1965     9.111  0.00000
  1966     9.111  0.00000
  1967     9.112  0.00000
  1968     9.112  0.00000
  1969     9.122  0.00000
  1970     9.125  0.00000
  1971     9.165  0.00000
  1972     9.190  0.00000
  1973     9.190  0.00000
  1974     9.241  0.00000
  1975     9.241  0.00000
  1976     9.266  0.00000
  1977     9.276  0.00000
  1978     9.276  0.00000
  1979     9.283  0.00000
  1980     9.283  0.00000
  1981     9.299  0.00000
  1982     9.305  0.00000
  1983     9.338  0.00000
  1984     9.338  0.00000
  1985     9.348  0.00000
  1986     9.348  0.00000
  1987     9.355  0.00000
  1988     9.405  0.00000
  1989     9.405  0.00000
  1990     9.439  0.00000
  1991     9.439  0.00000
  1992     9.441  0.00000
  1993     9.495  0.00000
  1994     9.496  0.00000
  1995     9.496  0.00000
  1996     9.503  0.00000
  1997     9.503  0.00000
  1998     9.506  0.00000
  1999     9.507  0.00000
  2000     9.514  0.00000
  2001     9.514  0.00000
  2002     9.525  0.00000
  2003     9.529  0.00000
  2004     9.533  0.00000
  2005     9.657  0.00000
  2006     9.668  0.00000
  2007     9.669  0.00000
  2008     9.686  0.00000
  2009     9.686  0.00000
  2010     9.692  0.00000
  2011    10.158  0.00000
  2012    10.158  0.00000
  2013    10.158  0.00000
  2014    10.158  0.00000
  2015    10.395  0.00000
  2016    10.395  0.00000
  2017    10.395  0.00000
  2018    10.396  0.00000
  2019    10.396  0.00000
  2020    10.396  0.00000
  2021    10.421  0.00000
  2022    10.422  0.00000
  2023    10.422  0.00000
  2024    10.422  0.00000
  2025    10.422  0.00000
  2026    10.422  0.00000
  2027    10.610  0.00000
  2028    10.610  0.00000
  2029    10.610  0.00000
  2030    10.610  0.00000
  2031    10.610  0.00000
  2032    10.611  0.00000
  2033    10.998  0.00000
  2034    10.998  0.00000
  2035    10.998  0.00000
  2036    10.998  0.00000
  2037    10.998  0.00000
  2038    10.999  0.00000
  2039    11.019  0.00000
  2040    11.019  0.00000
  2041    11.019  0.00000
  2042    11.019  0.00000
  2043    11.021  0.00000
  2044    11.021  0.00000
  2045    11.510  0.00000
  2046    11.511  0.00000
  2047    11.511  0.00000
  2048    11.512  0.00000
  2049    11.512  0.00000
  2050    11.513  0.00000
  2051    11.641  0.00000
  2052    11.641  0.00000
  2053    11.641  0.00000
  2054    11.642  0.00000
  2055    11.642  0.00000
  2056    11.642  0.00000
  2057    11.663  0.00000
  2058    11.664  0.00000
  2059    11.664  0.00000
  2060    11.666  0.00000
  2061    11.666  0.00000
  2062    11.667  0.00000
  2063    11.925  0.00000
  2064    11.925  0.00000
  2065    11.982  0.00000
  2066    11.982  0.00000
  2067    12.004  0.00000
  2068    12.005  0.00000
  2069    12.011  0.00000
  2070    12.011  0.00000
  2071    12.011  0.00000
  2072    12.011  0.00000
  2073    12.025  0.00000
  2074    12.025  0.00000
  2075    12.025  0.00000
  2076    12.025  0.00000
  2077    12.035  0.00000
  2078    12.035  0.00000
  2079    12.035  0.00000
  2080    12.035  0.00000
  2081    12.056  0.00000
  2082    12.056  0.00000
  2083    12.070  0.00000
  2084    12.070  0.00000
  2085    12.071  0.00000
  2086    12.071  0.00000
  2087    12.071  0.00000
  2088    12.073  0.00000
  2089    12.082  0.00000
  2090    12.082  0.00000
  2091    12.082  0.00000
  2092    12.082  0.00000
  2093    12.082  0.00000
  2094    12.082  0.00000
  2095    12.247  0.00000
  2096    12.247  0.00000
  2097    12.450  0.00000
  2098    12.450  0.00000
  2099    12.450  0.00000
  2100    12.451  0.00000
  2101    12.451  0.00000
  2102    12.451  0.00000
  2103    13.002  0.00000
  2104    13.002  0.00000
  2105    13.002  0.00000
  2106    13.002  0.00000
  2107    13.097  0.00000
  2108    13.097  0.00000
  2109    13.169  0.00000
  2110    13.169  0.00000
  2111    13.169  0.00000
  2112    13.169  0.00000
  2113    13.244  0.00000
  2114    13.244  0.00000
  2115    13.516  0.00000
  2116    13.516  0.00000
  2117    13.516  0.00000
  2118    13.516  0.00000
  2119    13.524  0.00000
  2120    13.524  0.00000
  2121    13.576  0.00000
  2122    13.576  0.00000
  2123    13.714  0.00000
  2124    13.714  0.00000
  2125    13.714  0.00000
  2126    13.714  0.00000
  2127    14.175  0.00000
  2128    14.176  0.00000
  2129    14.176  0.00000
  2130    14.179  0.00000
  2131    14.179  0.00000
  2132    14.179  0.00000
  2133    14.189  0.00000
  2134    14.189  0.00000
  2135    14.190  0.00000
  2136    14.192  0.00000
  2137    14.192  0.00000
  2138    14.192  0.00000
  2139    14.313  0.00000
  2140    14.313  0.00000
  2141    14.313  0.00000
  2142    14.314  0.00000
  2143    14.314  0.00000
  2144    14.314  0.00000
  2145    14.335  0.00000
  2146    14.336  0.00000
  2147    14.336  0.00000
  2148    14.338  0.00000
  2149    14.338  0.00000
  2150    14.339  0.00000
  2151    15.187  0.00000
  2152    15.187  0.00000
  2153    15.205  0.00000
  2154    15.205  0.00000
  2155    15.205  0.00000
  2156    15.205  0.00000
  2157    16.049  0.00000
  2158    16.049  0.00000
  2159    16.049  0.00000
  2160    16.050  0.00000
  2161    16.050  0.00000
  2162    16.050  0.00000
  2163    16.063  0.00000
  2164    16.063  0.00000
  2165    16.063  0.00000
  2166    16.064  0.00000
  2167    16.064  0.00000
  2168    16.064  0.00000
  2169    16.335  0.00000
  2170    16.335  0.00000
  2171    16.350  0.00000
  2172    16.350  0.00000
  2173    16.350  0.00000
  2174    16.350  0.00000
  2175    16.648  0.00000
  2176    16.648  0.00000
  2177    16.649  0.00000
  2178    16.650  0.00000
  2179    16.650  0.00000
  2180    16.650  0.00000
  2181    16.661  0.00000
  2182    16.661  0.00000
  2183    16.661  0.00000
  2184    16.663  0.00000
  2185    16.663  0.00000
  2186    16.663  0.00000
  2187    17.312  0.00000
  2188    17.312  0.00000
  2189    17.312  0.00000
  2190    17.312  0.00000
  2191    17.315  0.00000
  2192    17.316  0.00000
  2193    17.316  0.00000
  2194    17.316  0.00000
  2195    17.317  0.00000
  2196    17.317  0.00000
  2197    17.322  0.00000
  2198    17.322  0.00000
  2199    17.879  0.00000
  2200    17.879  0.00000
  2201    17.879  0.00000
  2202    17.879  0.00000
  2203    17.955  0.00000
  2204    17.956  0.00000
  2205    18.172  0.00000
  2206    18.173  0.00000
  2207    18.195  0.00000
  2208    18.195  0.00000
  2209    18.195  0.00000
  2210    18.195  0.00000
  2211    18.928  0.00000
  2212    18.928  0.00000
  2213    18.929  0.00000
  2214    18.930  0.00000
  2215    18.930  0.00000
  2216    18.930  0.00000
  2217    18.949  0.00000
  2218    18.949  0.00000
  2219    18.949  0.00000
  2220    18.951  0.00000
  2221    18.951  0.00000
  2222    18.951  0.00000
  2223    19.369  0.00000
  2224    19.369  0.00000
  2225    19.369  0.00000
  2226    19.369  0.00000
  2227    19.441  0.00000
  2228    19.441  0.00000
  2229    19.595  0.00000
  2230    19.595  0.00000
  2231    19.596  0.00000
  2232    19.596  0.00000
  2233    19.596  0.00000
  2234    19.597  0.00000
  2235    19.602  0.00000
  2236    19.602  0.00000
  2237    19.603  0.00000
  2238    19.605  0.00000
  2239    19.605  0.00000
  2240    19.607  0.00000
  2241    19.666  0.00000
  2242    19.666  0.00000
  2243    19.666  0.00000
  2244    19.666  0.00000
  2245    19.726  0.00000
  2246    19.727  0.00000
  2247    19.914  0.00000
  2248    19.914  0.00000
  2249    19.915  0.00000
  2250    19.915  0.00000
  2251    19.915  0.00000
  2252    19.915  0.00000
  2253    19.921  0.00000
  2254    19.921  0.00000
  2255    19.923  0.00000
  2256    19.923  0.00000
  2257    19.923  0.00000
  2258    19.926  0.00000
  2259    20.016  0.00000
  2260    20.016  0.00000
  2261    20.016  0.00000
  2262    20.017  0.00000
  2263    20.026  0.00000
  2264    20.028  0.00000
  2265    20.124  0.00000
  2266    20.124  0.00000
  2267    20.124  0.00000
  2268    20.124  0.00000
  2269    20.224  0.00000
  2270    20.224  0.00000
  2271    20.224  0.00000
  2272    20.224  0.00000
  2273    20.230  0.00000
  2274    20.230  0.00000
  2275    20.341  0.00000
  2276    20.341  0.00000
  2277    20.341  0.00000
  2278    20.341  0.00000
  2279    20.413  0.00000
  2280    20.414  0.00000
  2281    20.591  0.00000
  2282    20.591  0.00000
  2283    20.591  0.00000
  2284    20.592  0.00000
  2285    20.592  0.00000
  2286    20.592  0.00000
  2287    20.602  0.00000
  2288    20.602  0.00000
  2289    20.602  0.00000
  2290    20.602  0.00000
  2291    20.602  0.00000
  2292    20.603  0.00000
  2293    20.694  0.00000
  2294    20.694  0.00000
  2295    20.694  0.00000
  2296    20.694  0.00000
  2297    21.215  0.00000
  2298    21.215  0.00000
  2299    21.336  0.00000
  2300    21.336  0.00000
  2301    21.336  0.00000
  2302    21.336  0.00000
  2303    21.461  0.00000
  2304    21.461  0.00000
  2305    21.461  0.00000
  2306    21.461  0.00000
  2307    21.461  0.00000
  2308    21.461  0.00000
  2309    21.472  0.00000
  2310    21.472  0.00000
  2311    21.472  0.00000
  2312    21.472  0.00000
  2313    21.473  0.00000
  2314    21.473  0.00000
  2315    21.856  0.00000
  2316    21.856  0.00000
  2317    21.856  0.00000
  2318    21.856  0.00000
  2319    22.232  0.00000
  2320    22.232  0.00000
  2321    22.232  0.00000
  2322    22.235  0.00000
  2323    22.235  0.00000
  2324    22.235  0.00000
  2325    22.244  0.00000
  2326    22.244  0.00000
  2327    22.244  0.00000
  2328    22.246  0.00000
  2329    22.246  0.00000
  2330    22.247  0.00000
  2331    22.583  0.00000
  2332    22.583  0.00000
  2333    22.583  0.00000
  2334    22.584  0.00000
  2335    22.758  0.00000
  2336    22.758  0.00000
  2337    22.758  0.00000
  2338    22.758  0.00000
  2339    22.759  0.00000
  2340    22.759  0.00000
  2341    22.771  0.00000
  2342    22.771  0.00000
  2343    22.771  0.00000
  2344    22.771  0.00000
  2345    22.771  0.00000
  2346    22.771  0.00000
  2347    23.169  0.00000
  2348    23.169  0.00000
  2349    23.238  0.00000
  2350    23.239  0.00000
  2351    23.469  0.00000
  2352    23.469  0.00000
  2353    23.469  0.00000
  2354    23.470  0.00000
  2355    23.470  0.00000
  2356    23.470  0.00000
  2357    23.477  0.00000
  2358    23.477  0.00000
  2359    23.477  0.00000
  2360    23.477  0.00000
  2361    23.477  0.00000
  2362    23.478  0.00000
  2363    23.675  0.00000
  2364    23.675  0.00000
  2365    23.704  0.00000
  2366    23.704  0.00000
  2367    23.704  0.00000
  2368    23.704  0.00000
  2369    24.039  0.00000
  2370    24.039  0.00000
  2371    24.040  0.00000
  2372    24.047  0.00000
  2373    24.047  0.00000
  2374    24.047  0.00000
  2375    24.066  0.00000
  2376    24.066  0.00000
  2377    24.067  0.00000
  2378    24.076  0.00000
  2379    24.076  0.00000
  2380    24.077  0.00000
  2381    24.209  0.00000
  2382    24.209  0.00000
  2383    24.209  0.00000
  2384    24.209  0.00000
  2385    24.337  0.00000
  2386    24.338  0.00000
  2387    24.338  0.00000
  2388    24.342  0.00000
  2389    24.342  0.00000
  2390    24.343  0.00000
  2391    24.363  0.00000
  2392    24.363  0.00000
  2393    24.363  0.00000
  2394    24.371  0.00000
  2395    24.371  0.00000
  2396    24.371  0.00000
  2397    25.276  0.00000
  2398    25.276  0.00000
  2399    25.277  0.00000
  2400    25.279  0.00000
  2401    25.279  0.00000
  2402    25.280  0.00000
  2403    25.459  0.00000
  2404    25.459  0.00000
  2405    25.462  0.00000
  2406    25.462  0.00000
  2407    25.463  0.00000
  2408    25.465  0.00000
  2409    25.474  0.00000
  2410    25.474  0.00000
  2411    25.483  0.00000
  2412    25.483  0.00000
  2413    25.483  0.00000
  2414    25.483  0.00000
  2415    26.290  0.00000
  2416    26.290  0.00000
  2417    26.296  0.00000
  2418    26.298  0.00000
  2419    26.298  0.00000
  2420    26.304  0.00000
  2421    26.419  0.00000
  2422    26.419  0.00000
  2423    26.420  0.00000
  2424    26.429  0.00000
  2425    26.429  0.00000
  2426    26.430  0.00000
  2427    26.976  0.00000
  2428    26.976  0.00000
  2429    26.978  0.00000
  2430    26.978  0.00000
  2431    26.980  0.00000
  2432    26.983  0.00000
  2433    26.985  0.00000
  2434    26.985  0.00000
  2435    26.986  0.00000
  2436    26.986  0.00000
  2437    27.030  0.00000
  2438    27.030  0.00000
  2439    27.030  0.00000
  2440    27.033  0.00000
  2441    27.033  0.00000
  2442    27.033  0.00000
  2443    27.098  0.00000
  2444    27.098  0.00000
  2445    27.339  0.00000
  2446    27.339  0.00000
  2447    27.341  0.00000
  2448    27.347  0.00000
  2449    27.347  0.00000
  2450    27.349  0.00000
  2451    27.371  0.00000
  2452    27.371  0.00000
  2453    27.371  0.00000
  2454    27.376  0.00000
  2455    27.376  0.00000
  2456    27.376  0.00000
  2457    27.483  0.00000
  2458    27.483  0.00000
  2459    27.483  0.00000
  2460    27.483  0.00000
  2461    27.810  0.00000
  2462    27.810  0.00000
  2463    28.105  0.00000
  2464    28.106  0.00000
  2465    28.166  0.00000
  2466    28.166  0.00000
  2467    28.166  0.00000
  2468    28.166  0.00000
  2469    28.584  0.00000
  2470    28.585  0.00000
  2471    28.641  0.00000
  2472    28.642  0.00000
  2473    28.642  0.00000
  2474    28.644  0.00000
  2475    28.644  0.00000
  2476    28.644  0.00000
  2477    28.652  0.00000
  2478    28.653  0.00000
  2479    28.653  0.00000
  2480    28.655  0.00000
  2481    28.655  0.00000
  2482    28.656  0.00000
  2483    29.196  0.00000
  2484    29.196  0.00000
  2485    29.247  0.00000
  2486    29.247  0.00000
  2487    29.247  0.00000
  2488    29.247  0.00000
  2489    30.000  0.00000
  2490    30.000  0.00000
  2491    30.000  0.00000
  2492    30.000  0.00000
  2493    30.014  0.00000
  2494    30.014  0.00000
  2495    30.628  0.00000
  2496    30.628  0.00000
  2497    30.628  0.00000
  2498    30.628  0.00000
  2499    30.693  0.00000
  2500    30.693  0.00000
  2501    30.744  0.00000
  2502    30.745  0.00000
  2503    30.745  0.00000
  2504    30.745  0.00000
  2505    30.745  0.00000
  2506    30.745  0.00000
  2507    30.754  0.00000
  2508    30.754  0.00000
  2509    30.754  0.00000
  2510    30.754  0.00000
  2511    30.754  0.00000
  2512    30.755  0.00000
  2513    31.015  0.00000
  2514    31.015  0.00000
  2515    31.961  0.00000
  2516    31.961  0.00000
  2517    31.989  0.00000
  2518    31.989  0.00000
  2519    31.990  0.00000
  2520    31.990  0.00000
  2521    31.990  0.00000
  2522    31.990  0.00000
  2523    32.019  0.00000
  2524    32.019  0.00000
  2525    32.019  0.00000
  2526    32.019  0.00000
  2527    32.020  0.00000
  2528    32.020  0.00000
  2529    32.166  0.00000
  2530    32.166  0.00000
  2531    32.166  0.00000
  2532    32.166  0.00000
  2533    32.253  0.00000
  2534    32.253  0.00000
  2535    32.708  0.00000
  2536    32.708  0.00000
  2537    32.708  0.00000
  2538    32.708  0.00000
  2539    32.708  0.00000
  2540    32.708  0.00000
  2541    32.751  0.00000
  2542    32.751  0.00000
  2543    32.751  0.00000
  2544    32.751  0.00000
  2545    32.751  0.00000
  2546    32.751  0.00000
  2547    33.037  0.00000
  2548    33.037  0.00000
  2549    33.037  0.00000
  2550    33.037  0.00000
  2551    33.039  0.00000
  2552    33.039  0.00000
  2553    33.342  0.00000
  2554    33.343  0.00000
  2555    33.343  0.00000
  2556    33.343  0.00000
  2557    33.344  0.00000
  2558    33.344  0.00000
  2559    33.358  0.00000
  2560    33.358  0.00000
  2561    33.358  0.00000
  2562    33.358  0.00000
  2563    33.358  0.00000
  2564    33.358  0.00000
  2565    33.647  0.00000
  2566    33.647  0.00000
  2567    33.647  0.00000
  2568    33.647  0.00000
  2569    33.674  0.00000
  2570    33.674  0.00000
  2571    33.881  0.00000
  2572    33.882  0.00000
  2573    33.882  0.00000
  2574    33.882  0.00000
  2575    33.882  0.00000
  2576    33.882  0.00000
  2577    33.951  0.00000
  2578    33.951  0.00000
  2579    33.951  0.00000
  2580    33.952  0.00000
  2581    33.961  0.00000
  2582    33.962  0.00000
  2583    36.703  0.00000
  2584    36.703  0.00000
  2585    36.703  0.00000
  2586    36.703  0.00000
  2587    36.703  0.00000
  2588    36.703  0.00000
  2589    36.716  0.00000
  2590    36.716  0.00000
  2591    36.716  0.00000
  2592    36.717  0.00000
  2593    36.717  0.00000
  2594    36.717  0.00000
  2595    36.760  0.00000
  2596    36.760  0.00000
  2597    36.772  0.00000
  2598    36.772  0.00000
  2599    36.773  0.00000
  2600    36.773  0.00000
  2601    37.229  0.00000
  2602    37.230  0.00000
  2603    37.230  0.00000
  2604    37.230  0.00000
  2605    37.230  0.00000
  2606    37.230  0.00000
  2607    37.241  0.00000
  2608    37.241  0.00000
  2609    37.241  0.00000
  2610    37.241  0.00000
  2611    37.242  0.00000
  2612    37.242  0.00000
  2613    39.404  0.00000
  2614    39.404  0.00000
  2615    39.404  0.00000
  2616    39.404  0.00000
  2617    39.405  0.00000
  2618    39.405  0.00000
  2619    39.542  0.00000
  2620    39.542  0.00000
  2621    39.542  0.00000
  2622    39.542  0.00000
  2623    39.546  0.00000
  2624    39.546  0.00000
  2625    42.530  0.00000
  2626    42.530  0.00000
  2627    42.530  0.00000
  2628    42.530  0.00000
  2629    42.531  0.00000
  2630    42.531  0.00000
  2631    42.540  0.00000
  2632    42.540  0.00000
  2633    42.540  0.00000
  2634    42.540  0.00000
  2635    42.540  0.00000
  2636    42.540  0.00000
  2637    46.529  0.00000
  2638    46.529  0.00000
  2639    46.530  0.00000
  2640    46.530  0.00000
  2641    46.530  0.00000
  2642    46.530  0.00000
  2643    46.549  0.00000
  2644    46.549  0.00000
  2645    46.549  0.00000
  2646    46.549  0.00000
  2647    46.550  0.00000
  2648    46.550  0.00000
  2649    47.648  0.00000
  2650    47.648  0.00000
  2651    47.648  0.00000
  2652    47.648  0.00000
  2653    47.649  0.00000
  2654    47.649  0.00000
  2655    47.659  0.00000
  2656    47.659  0.00000
  2657    47.659  0.00000
  2658    47.659  0.00000
  2659    47.660  0.00000
  2660    47.660  0.00000
  2661    57.320  0.00000
  2662    57.321  0.00000
  2663    57.321  0.00000
  2664    57.322  0.00000
  2665    57.322  0.00000
  2666    57.322  0.00000
  2667    57.329  0.00000
  2668    57.331  0.00000
  2669    57.331  0.00000
  2670    57.331  0.00000
  2671    57.331  0.00000
  2672    57.331  0.00000

